{
  "type": "service_account",
  "project_id": "mess-demo",
  "private_key_id": "b097bf7401d8a3f6bfde1ac7a183e4efef93376e",
  "private_key": "-----BEGIN PRIVATE KEY-----\nMIIEvAIBADANBgkqhkiG9w0BAQEFAASCBKYwggSiAgEAAoIBAQC7nbtn/3tdEv1N\nIT4uxxRYCLC/ZE4jSlIrQ9H0htuvAMWY+noG3vr+7vgoU09/e6isx+Ix6viofZ4c\nli/AESwnDfdPyTb4zNFVeQLdX54oBBDYi7PBKaRZZyGtaqIYN7Nz0HRn7+3bh+Xp\nCSAr8TNu+Wn8bjsY6MoEzYFg4rKurrrXFXkoGpiZOcpkXatx7MjDRMw4LGguCykm\n+pgtylaUGRO+UVwZxil94ZCZ30tKrkEHbOSY6gBJV5caeg+d822DeD1ok5PWbUXe\nHrW49AzUkj55xCuxtTiiZGcktFyIn/Q26p93LOQIo8xm4UsFECyXfzqgFiKidpCw\nZEO+m96HAgMBAAECggEAUZdeCfNEXgzFFcbwOP2g7kwROZrQlG5c363l39bKMQg/\n5rB/Yv+T3kxkpXzdpM5NY56l0xmhu/ytRzdVWszdC7r6I7uY6YiBPQ+cXFOZ/0MN\nZG8U5FtMuwirz7QA/FE0/JfaF91y7rbiGH88e3+w44EaQ4pYrxOFz6LjshPEq0xY\n3xE4z+8Iito9nX59yQpnaoiS7Ishc0kZD7yHvOX3g3CTdMJUPiSZRFCgjOEYg/55\nmmqt0LolyPe53RFB8hMC9C6veSsGxBY7AiyBDdE25sZZ7lgEexNgE2n7sQAhnn4+\ns8ZHPHay4NlOF339oEtQqFjkF4Yxg274FPhERpcN+QKBgQDmcQoUxy9jsFoN/Oo1\nd3KJPUb+xvw5EfBHEO5QP2naD6m4WuHhklEjo51+Tx0OsMnpsjQMH7Vzu9gPmY7Q\nUwotkDrDajfvNKbeRO5NWUJOqU0TiyTjU8Y534o+rhDmZ99OqBXW+nGh2+uaw+n6\n86lns+eWoqkZcJCcGkSE5Jl+IwKBgQDQbL6NDF8Lifh6QMXg41jJGnmrzY9gdoFd\nw0EXekbCAizYXOhJ1SwKDpjIgheHD/G/AXhUTC/mkhn19XYMUzFryk2DQ7Rg1W5s\neyXxBCenaItI8bZnf4l8k20KxMRLaYk5oyhvCVIOfI0W0VcR/7K7Q2HHnADIZq6V\nugEou/86TQKBgHcyIz/KI+YRsxMnLlJHnbQFQTLJ5G70q29m/438rxj/Hw/f2pTe\nJSAlInLSIzqVEWvTJH7c6/OYR1MSX7+8JDibMPoheBtABcxUpVrW/6hGhDrGr2by\nz0biLNTtHoq/Uc+Su/E+DAboBX9BNUb8QDUG5pSRQJyLEBHeuHBw+kA3AoGAOSpK\nTTdibjDGZQmU/Gx+spG/Y166/3MhYk0mckEIXTfpguJgl7ePH6cHQp9jwpid7oyB\nq2VGEhBqbGqJmTHMMUtIXUNZmuGPKtPQAT3pfmIPKc+Z/uMdG3z4AGcdi62DhLp6\nYZIF3pFMxUBfiEFAjVoa3HuuP0jig5CDtt9xTlUCgYBclQKrZQyIqfi38Z8PXnaV\n9uSekeJGlMRLt5Mx9LY/LAyxVmxLKg9thN0prlBWyRB+uCYwtW6AdUNBuChzhIg5\nkJnq1DK02cRCM/lQwiXYtTFFGE4+JThF8/ui+Y9QO3GwKjSxn3OZdkLpNW9UVHOv\nTTpJQmBlLMHtlNdmpRWqbg==\n-----END PRIVATE KEY-----\n",
  "client_email": "firebase-adminsdk-8r5iz@mess-demo.iam.gserviceaccount.com",
  "client_id": "111124019736555278269",
  "auth_uri": "https://accounts.google.com/o/oauth2/auth",
  "token_uri": "https://oauth2.googleapis.com/token",
  "auth_provider_x509_cert_url": "https://www.googleapis.com/oauth2/v1/certs",
  "client_x509_cert_url": "https://www.googleapis.com/robot/v1/metadata/x509/firebase-adminsdk-8r5iz%40mess-demo.iam.gserviceaccount.com"
}
